STATION,STATION_NAME,ELEVATION,LATITUDE,LONGITUDE,DATE,PRCP,Measurement Flag,Quality Flag,Source Flag,Time of Observation,SNWD,Measurement Flag,Quality Flag,Source Flag,Time of Observation,SNOW,Measurement Flag,Quality Flag,Source Flag,Time of Observation,TMAX,Measurement Flag,Quality Flag,Source Flag,Time of Observation,TMIN,Measurement Flag,Quality Flag,Source Flag,Time of Observation,AWND,Measurement Flag,Quality Flag,Source Flag,Time of Observation,WDF2,Measurement Flag,Quality Flag,Source Flag,Time of Observation,WDF5,Measurement Flag,Quality Flag,Source Flag,Time of Observation,WSF2,Measurement Flag,Quality Flag,Source Flag,Time of Observation,WSF5,Measurement Flag,Quality Flag,Source Flag,Time of Observation,WT01,Measurement Flag,Quality Flag,Source Flag,Time of Observation,WT06,Measurement Flag,Quality Flag,Source Flag,Time of Observation,WT02,Measurement Flag,Quality Flag,Source Flag,Time of Observation,WT08,Measurement Flag,Quality Flag,Source Flag,Time of Observation
GHCND:USW00023064,GARDEN CITY REGIONAL AIRPORT KS US,878.4,37.92722,-100.72472,20160101,0, , ,W,9999,0, , ,W,9999,0, , ,W,9999,56, , ,W,9999,-132, , ,W,9999,44, , ,W,9999,250, , ,W,9999,270, , ,W,9999,89, , ,W,9999,112, , ,W,9999,-9999, , , ,9999,-9999, , , ,9999,-9999, , , ,9999,-9999, , , ,9999
GHCND:USW00023064,GARDEN CITY REGIONAL AIRPORT KS US,878.4,37.92722,-100.72472,20160102,0, , ,W,9999,-9999, , , ,9999,-9999, , , ,9999,106, , ,W,9999,-127, , ,W,9999,44, , ,W,9999,350, , ,W,9999,340, , ,W,9999,67, , ,W,9999,85, , ,W,9999,-9999, , , ,9999,-9999, , , ,9999,-9999, , , ,9999,-9999, , , ,9999
GHCND:USW00023064,GARDEN CITY REGIONAL AIRPORT KS US,878.4,37.92722,-100.72472,20160103,0, , ,W,9999,-9999, , , ,9999,-9999, , , ,9999,100, , ,W,9999,-82, , ,W,9999,37, , ,W,9999,360, , ,W,9999,360, , ,W,9999,63, , ,W,9999,81, , ,W,9999,-9999, , , ,9999,-9999, , , ,9999,-9999, , , ,9999,-9999, , , ,9999
GHCND:USW00023064,GARDEN CITY REGIONAL AIRPORT KS US,878.4,37.92722,-100.72472,20160104,0, , ,W,9999,-9999, , , ,9999,-9999, , , ,9999,72, , ,W,9999,-71, , ,W,9999,49, , ,W,9999,150, , ,W,9999,150, , ,W,9999,103, , ,W,9999,125, , ,W,9999,-9999, , , ,9999,-9999, , , ,9999,-9999, , , ,9999,-9999, , , ,9999
GHCND:USW00023064,GARDEN CITY REGIONAL AIRPORT KS US,878.4,37.92722,-100.72472,20160105,0, , ,W,9999,-9999, , , ,9999,-9999, , , ,9999,78, , ,W,9999,-43, , ,W,9999,86, , ,W,9999,200, , ,W,9999,200, , ,W,9999,148, , ,W,9999,179, , ,W,9999,1, , ,W,9999,-9999, , , ,9999,-9999, , , ,9999,-9999, , , ,9999
GHCND:USW00023064,GARDEN CITY REGIONAL AIRPORT KS US,878.4,37.92722,-100.72472,20160106,0, , ,W,9999,-9999, , , ,9999,0, , ,W,9999,67, , ,W,9999,-49, , ,W,9999,39, , ,W,9999,180, , ,W,9999,170, , ,W,9999,107, , ,W,9999,130, , ,W,9999,1, , ,W,9999,-9999, , , ,9999,1, , ,W,9999,-9999, , , ,9999
GHCND:USW00023064,GARDEN CITY REGIONAL AIRPORT KS US,878.4,37.92722,-100.72472,20160107,8, , ,W,9999,-9999, , , ,9999,-9999, , , ,9999,22, , ,W,9999,0, , ,W,9999,47, , ,W,9999,10, , ,W,9999,30, , ,W,9999,72, , ,W,9999,89, , ,W,9999,1, , ,W,9999,-9999, , , ,9999,1, , ,W,9999,-9999, , , ,9999
GHCND:USW00023064,GARDEN CITY REGIONAL AIRPORT KS US,878.4,37.92722,-100.72472,20160108,0, , ,W,9999,0, , ,W,9999,0, , ,W,9999,6, , ,W,9999,-32, , ,W,9999,61, , ,W,9999,340, , ,W,9999,350, , ,W,9999,98, , ,W,9999,121, , ,W,9999,1, , ,W,9999,-9999, , , ,9999,-9999, , , ,9999,-9999, , , ,9999
GHCND:USW00023064,GARDEN CITY REGIONAL AIRPORT KS US,878.4,37.92722,-100.72472,20160109,0, , ,W,9999,0, , ,W,9999,0, , ,W,9999,-5, , ,W,9999,-93, , ,W,9999,58, , ,W,9999,350, , ,W,9999,340, , ,W,9999,103, , ,W,9999,125, , ,W,9999,1, , ,W,9999,-9999, , , ,9999,-9999, , , ,9999,1, , ,W,9999
GHCND:USW00023064,GARDEN CITY REGIONAL AIRPORT KS US,878.4,37.92722,-100.72472,20160110,0, , ,W,9999,0, , ,W,9999,0, , ,W,9999,61, , ,W,9999,-138, , ,W,9999,36, , ,W,9999,230, , ,W,9999,240, , ,W,9999,81, , ,W,9999,103, , ,W,9999,1, , ,W,9999,-9999, , , ,9999,-9999, , , ,9999,-9999, , , ,9999
GHCND:USW00023064,GARDEN CITY REGIONAL AIRPORT KS US,878.4,37.92722,-100.72472,20160111,0, , ,W,9999,0, , ,W,9999,0, , ,W,9999,94, , ,W,9999,-93, , ,W,9999,48, , ,W,9999,340, , ,W,9999,340, , ,W,9999,98, , ,W,9999,116, , ,W,9999,1, , ,W,9999,-9999, , , ,9999,-9999, , , ,9999,-9999, , , ,9999
GHCND:USW00023064,GARDEN CITY REGIONAL AIRPORT KS US,878.4,37.92722,-100.72472,20160112,0, , ,W,9999,0, , ,W,9999,0, , ,W,9999,100, , ,W,9999,-99, , ,W,9999,35, , ,W,9999,150, , ,W,9999,40, , ,W,9999,54, , ,W,9999,72, , ,W,9999,-9999, , , ,9999,-9999, , , ,9999,-9999, , , ,9999,-9999, , , ,9999
GHCND:USW00023064,GARDEN CITY REGIONAL AIRPORT KS US,878.4,37.92722,-100.72472,20160113,0, , ,W,9999,-9999, , , ,9999,-9999, , , ,9999,139, , ,W,9999,-77, , ,W,9999,41, , ,W,9999,230, , ,W,9999,220, , ,W,9999,67, , ,W,9999,81, , ,W,9999,-9999, , , ,9999,-9999, , , ,9999,-9999, , , ,9999,1, , ,W,9999
GHCND:USW00023064,GARDEN CITY REGIONAL AIRPORT KS US,878.4,37.92722,-100.72472,20160114,0, , ,W,9999,-9999, , , ,9999,-9999, , , ,9999,167, , ,W,9999,-38, , ,W,9999,59, , ,W,9999,10, , ,W,9999,10, , ,W,9999,130, , ,W,9999,152, , ,W,9999,-9999, , , ,9999,-9999, , , ,9999,-9999, , , ,9999,1, , ,W,9999
GHCND:USW00023064,GARDEN CITY REGIONAL AIRPORT KS US,878.4,37.92722,-100.72472,20160115,0, , ,W,9999,-9999, , , ,9999,-9999, , , ,9999,78, , ,W,9999,-66, , ,W,9999,29, , ,W,9999,350, , ,W,9999,350, , ,W,9999,81, , ,W,9999,103, , ,W,9999,-9999, , , ,9999,-9999, , , ,9999,-9999, , , ,9999,-9999, , , ,9999
GHCND:USW00023064,GARDEN CITY REGIONAL AIRPORT KS US,878.4,37.92722,-100.72472,20160116,0, , ,W,9999,-9999, , , ,9999,-9999, , , ,9999,72, , ,W,9999,-60, , ,W,9999,40, , ,W,9999,290, , ,W,9999,310, , ,W,9999,81, , ,W,9999,98, , ,W,9999,-9999, , , ,9999,-9999, , , ,9999,-9999, , , ,9999,-9999, , , ,9999
GHCND:USW00023064,GARDEN CITY REGIONAL AIRPORT KS US,878.4,37.92722,-100.72472,20160117,0,T, ,W,9999,-9999, , , ,9999,-9999, , , ,9999,-49, , ,W,9999,-93, , ,W,9999,49, , ,W,9999,50, , ,W,9999,60, , ,W,9999,107, , ,W,9999,130, , ,W,9999,1, , ,W,9999,-9999, , , ,9999,-9999, , , ,9999,1, , ,W,9999
GHCND:USW00023064,GARDEN CITY REGIONAL AIRPORT KS US,878.4,37.92722,-100.72472,20160118,0, , ,W,9999,0, , ,W,9999,0, , ,W,9999,28, , ,W,9999,-77, , ,W,9999,61, , ,W,9999,180, , ,W,9999,150, , ,W,9999,94, , ,W,9999,112, , ,W,9999,1, , ,W,9999,-9999, , , ,9999,-9999, , , ,9999,1, , ,W,9999
GHCND:USW00023064,GARDEN CITY REGIONAL AIRPORT KS US,878.4,37.92722,-100.72472,20160119,0, , ,W,9999,-9999, , , ,9999,-9999, , , ,9999,28, , ,W,9999,-77, , ,W,9999,49, , ,W,9999,350, , ,W,9999,350, , ,W,9999,103, , ,W,9999,121, , ,W,9999,1, , ,W,9999,-9999, , , ,9999,1, , ,W,9999,-9999, , , ,9999
GHCND:USW00023064,GARDEN CITY REGIONAL AIRPORT KS US,878.4,37.92722,-100.72472,20160120,0, , ,W,9999,-9999, , , ,9999,-9999, , , ,9999,78, , ,W,9999,-82, , ,W,9999,46, , ,W,9999,170, , ,W,9999,150, , ,W,9999,98, , ,W,9999,125, , ,W,9999,1, , ,W,9999,-9999, , , ,9999,1, , ,W,9999,-9999, , , ,9999
GHCND:USW00023064,GARDEN CITY REGIONAL AIRPORT KS US,878.4,37.92722,-100.72472,20160121,0, , ,W,9999,-9999, , , ,9999,-9999, , , ,9999,33, , ,W,9999,-77, , ,W,9999,72, , ,W,9999,350, , ,W,9999,360, , ,W,9999,134, , ,W,9999,161, , ,W,9999,1, , ,W,9999,-9999, , , ,9999,-9999, , , ,9999,-9999, , , ,9999
GHCND:USW00023064,GARDEN CITY REGIONAL AIRPORT KS US,878.4,37.92722,-100.72472,20160122,0, , ,W,9999,0, , ,W,9999,0, , ,W,9999,-5, , ,W,9999,-116, , ,W,9999,32, , ,W,9999,180, , ,W,9999,190, , ,W,9999,67, , ,W,9999,81, , ,W,9999,1, , ,W,9999,-9999, , , ,9999,1, , ,W,9999,-9999, , , ,9999
GHCND:USW00023064,GARDEN CITY REGIONAL AIRPORT KS US,878.4,37.92722,-100.72472,20160123,0, , ,W,9999,0, , ,W,9999,0, , ,W,9999,111, , ,W,9999,-71, , ,W,9999,50, , ,W,9999,150, , ,W,9999,150, , ,W,9999,89, , ,W,9999,103, , ,W,9999,1, , ,W,9999,-9999, , , ,9999,1, , ,W,9999,-9999, , , ,9999
GHCND:USW00023064,GARDEN CITY REGIONAL AIRPORT KS US,878.4,37.92722,-100.72472,20160124,0, , ,W,9999,0, , ,W,9999,0, , ,W,9999,167, , ,W,9999,-55, , ,W,9999,33, , ,W,9999,360, , ,W,9999,330, , ,W,9999,81, , ,W,9999,107, , ,W,9999,1, , ,W,9999,-9999, , , ,9999,-9999, , , ,9999,-9999, , , ,9999
GHCND:USW00023064,GARDEN CITY REGIONAL AIRPORT KS US,878.4,37.92722,-100.72472,20160125,0, , ,W,9999,0, , ,W,9999,0, , ,W,9999,78, , ,W,9999,-43, , ,W,9999,77, , ,W,9999,340, , ,W,9999,340, , ,W,9999,148, , ,W,9999,188, , ,W,9999,1, , ,W,9999,-9999, , , ,9999,-9999, , , ,9999,-9999, , , ,9999
GHCND:USW00023064,GARDEN CITY REGIONAL AIRPORT KS US,878.4,37.92722,-100.72472,20160126,0, , ,W,9999,0, , ,W,9999,0, , ,W,9999,89, , ,W,9999,-82, , ,W,9999,41, , ,W,9999,350, , ,W,9999,310, , ,W,9999,72, , ,W,9999,94, , ,W,9999,-9999, , , ,9999,-9999, , , ,9999,-9999, , , ,9999,-9999, , , ,9999
GHCND:USW00023064,GARDEN CITY REGIONAL AIRPORT KS US,878.4,37.92722,-100.72472,20160127,0, , ,W,9999,0, , ,W,9999,0, , ,W,9999,161, , ,W,9999,-77, , ,W,9999,45, , ,W,9999,10, , ,W,9999,310, , ,W,9999,72, , ,W,9999,94, , ,W,9999,-9999, , , ,9999,-9999, , , ,9999,-9999, , , ,9999,-9999, , , ,9999
GHCND:USW00023064,GARDEN CITY REGIONAL AIRPORT KS US,878.4,37.92722,-100.72472,20160128,0, , ,W,9999,0, , ,W,9999,0, , ,W,9999,183, , ,W,9999,-43, , ,W,9999,51, , ,W,9999,270, , ,W,9999,270, , ,W,9999,107, , ,W,9999,139, , ,W,9999,-9999, , , ,9999,-9999, , , ,9999,-9999, , , ,9999,-9999, , , ,9999
GHCND:USW00023064,GARDEN CITY REGIONAL AIRPORT KS US,878.4,37.92722,-100.72472,20160129,0, , ,W,9999,0, , ,W,9999,0, , ,W,9999,189, , ,W,9999,-55, , ,W,9999,58, , ,W,9999,10, , ,W,9999,10, , ,W,9999,170, , ,W,9999,215, , ,W,9999,-9999, , , ,9999,-9999, , , ,9999,-9999, , , ,9999,-9999, , , ,9999
GHCND:USW00023064,GARDEN CITY REGIONAL AIRPORT KS US,878.4,37.92722,-100.72472,20160130,0, , ,W,9999,0, , ,W,9999,0, , ,W,9999,178, , ,W,9999,-38, , ,W,9999,59, , ,W,9999,360, , ,W,9999,360, , ,W,9999,139, , ,W,9999,179, , ,W,9999,-9999, , , ,9999,-9999, , , ,9999,-9999, , , ,9999,-9999, , , ,9999
GHCND:USW00023064,GARDEN CITY REGIONAL AIRPORT KS US,878.4,37.92722,-100.72472,20160131,0, , ,W,9999,0, , ,W,9999,0, , ,W,9999,89, , ,W,9999,-21, , ,W,9999,49, , ,W,9999,10, , ,W,9999,10, , ,W,9999,139, , ,W,9999,179, , ,W,9999,-9999, , , ,9999,-9999, , , ,9999,-9999, , , ,9999,-9999, , , ,9999
GHCND:USW00023064,GARDEN CITY REGIONAL AIRPORT KS US,878.4,37.92722,-100.72472,20160201,30, , ,W,9999,0, , ,H,9999,-9999, , , ,9999,83, , ,W,9999,-5, , ,W,9999,79, , ,W,9999,110, , ,W,9999,120, , ,W,9999,134, , ,W,9999,179, , ,W,9999,1, , ,W,9999,-9999, , , ,9999,-9999, , , ,9999,-9999, , , ,9999
GHCND:USW00023064,GARDEN CITY REGIONAL AIRPORT KS US,878.4,37.92722,-100.72472,20160202,18, , ,W,9999,0, , ,H,9999,-9999, , , ,9999,0, , ,W,9999,-60, , ,W,9999,112, , ,W,9999,340, , ,W,9999,340, , ,W,9999,174, , ,W,9999,206, , ,W,9999,1, , ,W,9999,1, , ,W,9999,1, , ,W,9999,1, , ,W,9999
GHCND:USW00023064,GARDEN CITY REGIONAL AIRPORT KS US,878.4,37.92722,-100.72472,20160203,0, , ,W,9999,0, , ,H,9999,0, , ,H,9999,-10, , ,W,9999,-110, , ,W,9999,53, , ,W,9999,330, , ,W,9999,330, , ,W,9999,89, , ,W,9999,107, , ,W,9999,-9999, , , ,9999,-9999, , , ,9999,-9999, , , ,9999,-9999, , , ,9999
GHCND:USW00023064,GARDEN CITY REGIONAL AIRPORT KS US,878.4,37.92722,-100.72472,20160204,0, , ,W,9999,0, , ,H,9999,0, , ,H,9999,39, , ,W,9999,-143, , ,W,9999,33, , ,W,9999,270, , ,W,9999,270, , ,W,9999,67, , ,W,9999,81, , ,W,9999,-9999, , , ,9999,-9999, , , ,9999,-9999, , , ,9999,-9999, , , ,9999
GHCND:USW00023064,GARDEN CITY REGIONAL AIRPORT KS US,878.4,37.92722,-100.72472,20160205,0, , ,W,9999,0, , ,H,9999,0, , ,H,9999,50, , ,W,9999,-49, , ,W,9999,52, , ,W,9999,360, , ,W,9999,350, , ,W,9999,103, , ,W,9999,125, , ,W,9999,-9999, , , ,9999,-9999, , , ,9999,-9999, , , ,9999,-9999, , , ,9999
GHCND:USW00023064,GARDEN CITY REGIONAL AIRPORT KS US,878.4,37.92722,-100.72472,20160206,0, , ,W,9999,0, , ,H,9999,0, , ,H,9999,122, , ,W,9999,-88, , ,W,9999,45, , ,W,9999,220, , ,W,9999,220, , ,W,9999,89, , ,W,9999,103, , ,W,9999,-9999, , , ,9999,-9999, , , ,9999,-9999, , , ,9999,-9999, , , ,9999
GHCND:USW00023064,GARDEN CITY REGIONAL AIRPORT KS US,878.4,37.92722,-100.72472,20160207,0, , ,W,9999,0, , ,H,9999,0, , ,H,9999,89, , ,W,9999,-16, , ,W,9999,76, , ,W,9999,350, , ,W,9999,350, , ,W,9999,139, , ,W,9999,165, , ,W,9999,-9999, , , ,9999,-9999, , , ,9999,-9999, , , ,9999,-9999, , , ,9999
GHCND:USW00023064,GARDEN CITY REGIONAL AIRPORT KS US,878.4,37.92722,-100.72472,20160208,0, , ,W,9999,0, , ,H,9999,0, , ,H,9999,72, , ,W,9999,-43, , ,W,9999,77, , ,W,9999,340, , ,W,9999,350, , ,W,9999,143, , ,W,9999,174, , ,W,9999,-9999, , , ,9999,-9999, , , ,9999,-9999, , , ,9999,-9999, , , ,9999
GHCND:USW00023064,GARDEN CITY REGIONAL AIRPORT KS US,878.4,37.92722,-100.72472,20160209,0, , ,W,9999,0, , ,H,9999,0, , ,H,9999,111, , ,W,9999,-49, , ,W,9999,44, , ,W,9999,350, , ,W,9999,350, , ,W,9999,89, , ,W,9999,107, , ,W,9999,-9999, , , ,9999,-9999, , , ,9999,-9999, , , ,9999,-9999, , , ,9999
GHCND:USW00023064,GARDEN CITY REGIONAL AIRPORT KS US,878.4,37.92722,-100.72472,20160210,0, , ,W,9999,0, , ,H,9999,0, , ,H,9999,244, , ,W,9999,-21, , ,W,9999,61, , ,W,9999,320, , ,W,9999,310, , ,W,9999,112, , ,W,9999,134, , ,W,9999,-9999, , , ,9999,-9999, , , ,9999,-9999, , , ,9999,-9999, , , ,9999
GHCND:USW00023064,GARDEN CITY REGIONAL AIRPORT KS US,878.4,37.92722,-100.72472,20160211,0, , ,W,9999,-9999, , , ,9999,-9999, , , ,9999,183, , ,W,9999,-49, , ,W,9999,46, , ,W,9999,350, , ,W,9999,200, , ,W,9999,103, , ,W,9999,116, , ,W,9999,-9999, , , ,9999,-9999, , , ,9999,-9999, , , ,9999,-9999, , , ,9999
GHCND:USW00023064,GARDEN CITY REGIONAL AIRPORT KS US,878.4,37.92722,-100.72472,20160212,0, , ,W,9999,-9999, , , ,9999,-9999, , , ,9999,106, , ,W,9999,-38, , ,W,9999,48, , ,W,9999,80, , ,W,9999,80, , ,W,9999,103, , ,W,9999,121, , ,W,9999,-9999, , , ,9999,-9999, , , ,9999,-9999, , , ,9999,-9999, , , ,9999
GHCND:USW00023064,GARDEN CITY REGIONAL AIRPORT KS US,878.4,37.92722,-100.72472,20160213,0, , ,W,9999,0, , ,H,9999,0, , ,H,9999,117, , ,W,9999,-55, , ,W,9999,62, , ,W,9999,180, , ,W,9999,180, , ,W,9999,116, , ,W,9999,143, , ,W,9999,1, , ,W,9999,-9999, , , ,9999,-9999, , , ,9999,-9999, , , ,9999
GHCND:USW00023064,GARDEN CITY REGIONAL AIRPORT KS US,878.4,37.92722,-100.72472,20160214,0, , ,W,9999,-9999, , , ,9999,-9999, , , ,9999,122, , ,W,9999,-49, , ,W,9999,43, , ,W,9999,350, , ,W,9999,350, , ,W,9999,107, , ,W,9999,134, , ,W,9999,-9999, , , ,9999,-9999, , , ,9999,-9999, , , ,9999,-9999, , , ,9999
GHCND:USW00023064,GARDEN CITY REGIONAL AIRPORT KS US,878.4,37.92722,-100.72472,20160215,0, , ,W,9999,0, , ,H,9999,0, , ,H,9999,189, , ,W,9999,-38, , ,W,9999,51, , ,W,9999,330, , ,W,9999,320, , ,W,9999,112, , ,W,9999,139, , ,W,9999,-9999, , , ,9999,-9999, , , ,9999,-9999, , , ,9999,-9999, , , ,9999
GHCND:USW00023064,GARDEN CITY REGIONAL AIRPORT KS US,878.4,37.92722,-100.72472,20160216,0, , ,W,9999,0, , ,H,9999,0, , ,H,9999,122, , ,W,9999,17, , ,W,9999,62, , ,W,9999,360, , ,W,9999,360, , ,W,9999,139, , ,W,9999,170, , ,W,9999,-9999, , , ,9999,-9999, , , ,9999,-9999, , , ,9999,-9999, , , ,9999
GHCND:USW00023064,GARDEN CITY REGIONAL AIRPORT KS US,878.4,37.92722,-100.72472,20160217,0, , ,W,9999,0, , ,H,9999,-9999, , , ,9999,217, , ,W,9999,-32, , ,W,9999,38, , ,W,9999,150, , ,W,9999,140, , ,W,9999,94, , ,W,9999,112, , ,W,9999,-9999, , , ,9999,-9999, , , ,9999,-9999, , , ,9999,-9999, , , ,9999
GHCND:USW00023064,GARDEN CITY REGIONAL AIRPORT KS US,878.4,37.92722,-100.72472,20160218,0, , ,W,9999,0, , ,H,9999,-9999, , , ,9999,317, , ,W,9999,56, , ,W,9999,84, , ,W,9999,230, , ,W,9999,250, , ,W,9999,143, , ,W,9999,174, , ,W,9999,-9999, , , ,9999,-9999, , , ,9999,-9999, , , ,9999,-9999, , , ,9999
GHCND:USW00023064,GARDEN CITY REGIONAL AIRPORT KS US,878.4,37.92722,-100.72472,20160219,0, , ,W,9999,-9999, , , ,9999,-9999, , , ,9999,211, , ,W,9999,11, , ,W,9999,45, , ,W,9999,330, , ,W,9999,320, , ,W,9999,134, , ,W,9999,170, , ,W,9999,-9999, , , ,9999,-9999, , , ,9999,-9999, , , ,9999,-9999, , , ,9999
GHCND:USW00023064,GARDEN CITY REGIONAL AIRPORT KS US,878.4,37.92722,-100.72472,20160220,0, , ,W,9999,-9999, , , ,9999,-9999, , , ,9999,211, , ,W,9999,0, , ,W,9999,59, , ,W,9999,30, , ,W,9999,40, , ,W,9999,134, , ,W,9999,174, , ,W,9999,-9999, , , ,9999,-9999, , , ,9999,-9999, , , ,9999,1, , ,W,9999
GHCND:USW00023064,GARDEN CITY REGIONAL AIRPORT KS US,878.4,37.92722,-100.72472,20160221,0, , ,W,9999,-9999, , , ,9999,-9999, , , ,9999,128, , ,W,9999,-21, , ,W,9999,55, , ,W,9999,10, , ,W,9999,40, , ,W,9999,112, , ,W,9999,130, , ,W,9999,-9999, , , ,9999,-9999, , , ,9999,-9999, , , ,9999,-9999, , , ,9999
GHCND:USW00023064,GARDEN CITY REGIONAL AIRPORT KS US,878.4,37.92722,-100.72472,20160222,0, , ,W,9999,-9999, , , ,9999,-9999, , , ,9999,128, , ,W,9999,-27, , ,W,9999,43, , ,W,9999,190, , ,W,9999,150, , ,W,9999,94, , ,W,9999,116, , ,W,9999,-9999, , , ,9999,-9999, , , ,9999,-9999, , , ,9999,-9999, , , ,9999
GHCND:USW00023064,GARDEN CITY REGIONAL AIRPORT KS US,878.4,37.92722,-100.72472,20160223,0,T, ,W,9999,-9999, , , ,9999,-9999, , , ,9999,100, , ,W,9999,-21, , ,W,9999,77, , ,W,9999,10, , ,W,9999,10, , ,W,9999,148, , ,W,9999,183, , ,W,9999,-9999, , , ,9999,-9999, , , ,9999,-9999, , , ,9999,-9999, , , ,9999
GHCND:USW00023064,GARDEN CITY REGIONAL AIRPORT KS US,878.4,37.92722,-100.72472,20160224,0, , ,W,9999,0, , ,H,9999,0, , ,H,9999,150, , ,W,9999,-60, , ,W,9999,67, , ,W,9999,330, , ,W,9999,330, , ,W,9999,161, , ,W,9999,197, , ,W,9999,-9999, , , ,9999,-9999, , , ,9999,-9999, , , ,9999,-9999, , , ,9999
GHCND:USW00023064,GARDEN CITY REGIONAL AIRPORT KS US,878.4,37.92722,-100.72472,20160225,0, , ,W,9999,0, , ,H,9999,0, , ,H,9999,78, , ,W,9999,-82, , ,W,9999,50, , ,W,9999,350, , ,W,9999,350, , ,W,9999,103, , ,W,9999,125, , ,W,9999,-9999, , , ,9999,-9999, , , ,9999,-9999, , , ,9999,-9999, , , ,9999
GHCND:USW00023064,GARDEN CITY REGIONAL AIRPORT KS US,878.4,37.92722,-100.72472,20160226,0, , ,W,9999,0, , ,H,9999,0, , ,H,9999,183, , ,W,9999,-66, , ,W,9999,51, , ,W,9999,10, , ,W,9999,340, , ,W,9999,107, , ,W,9999,143, , ,W,9999,-9999, , , ,9999,-9999, , , ,9999,-9999, , , ,9999,-9999, , , ,9999
GHCND:USW00023064,GARDEN CITY REGIONAL AIRPORT KS US,878.4,37.92722,-100.72472,20160227,0, , ,W,9999,0, , ,H,9999,0, , ,H,9999,256, , ,W,9999,-21, , ,W,9999,65, , ,W,9999,200, , ,W,9999,220, , ,W,9999,139, , ,W,9999,215, , ,W,9999,-9999, , , ,9999,-9999, , , ,9999,-9999, , , ,9999,1, , ,W,9999
GHCND:USW00023064,GARDEN CITY REGIONAL AIRPORT KS US,878.4,37.92722,-100.72472,20160228,0, , ,W,9999,0, , ,H,9999,0, , ,H,9999,183, , ,W,9999,6, , ,W,9999,86, , ,W,9999,340, , ,W,9999,330, , ,W,9999,161, , ,W,9999,201, , ,W,9999,-9999, , , ,9999,-9999, , , ,9999,-9999, , , ,9999,-9999, , , ,9999
GHCND:USW00023064,GARDEN CITY REGIONAL AIRPORT KS US,878.4,37.92722,-100.72472,20160229,0, , ,W,9999,0, , ,H,9999,0, , ,H,9999,217, , ,W,9999,-5, , ,W,9999,60, , ,W,9999,360, , ,W,9999,10, , ,W,9999,174, , ,W,9999,228, , ,W,9999,-9999, , , ,9999,-9999, , , ,9999,-9999, , , ,9999,-9999, , , ,9999
GHCND:USW00023064,GARDEN CITY REGIONAL AIRPORT KS US,878.4,37.92722,-100.72472,20160301,0, , ,W,9999,-9999, , , ,9999,-9999, , , ,9999,144, , ,W,9999,6, , ,W,9999,53, , ,W,9999,350, , ,W,9999,350, , ,W,9999,112, , ,W,9999,143, , ,W,9999,-9999, , , ,9999,-9999, , , ,9999,-9999, , , ,9999,-9999, , , ,9999
GHCND:USW00023064,GARDEN CITY REGIONAL AIRPORT KS US,878.4,37.92722,-100.72472,20160302,0,T, ,W,9999,-9999, , , ,9999,-9999, , , ,9999,206, , ,W,9999,-5, , ,W,9999,47, , ,W,9999,310, , ,W,9999,300, , ,W,9999,125, , ,W,9999,170, , ,W,9999,-9999, , , ,9999,-9999, , , ,9999,-9999, , , ,9999,-9999, , , ,9999
GHCND:USW00023064,GARDEN CITY REGIONAL AIRPORT KS US,878.4,37.92722,-100.72472,20160303,0, , ,W,9999,0, , ,W,9999,0, , ,W,9999,161, , ,W,9999,0, , ,W,9999,56, , ,W,9999,350, , ,W,9999,340, , ,W,9999,125, , ,W,9999,148, , ,W,9999,-9999, , , ,9999,-9999, , , ,9999,-9999, , , ,9999,-9999, , , ,9999
GHCND:USW00023064,GARDEN CITY REGIONAL AIRPORT KS US,878.4,37.92722,-100.72472,20160304,0, , ,W,9999,0, , ,W,9999,-9999, , , ,9999,233, , ,W,9999,17, , ,W,9999,51, , ,W,9999,30, , ,W,9999,40, , ,W,9999,130, , ,W,9999,165, , ,W,9999,-9999, , , ,9999,-9999, , , ,9999,-9999, , , ,9999,-9999, , , ,9999
GHCND:USW00023064,GARDEN CITY REGIONAL AIRPORT KS US,878.4,37.92722,-100.72472,20160305,0, , ,W,9999,0, , ,W,9999,-9999, , , ,9999,200, , ,W,9999,-38, , ,W,9999,53, , ,W,9999,160, , ,W,9999,140, , ,W,9999,107, , ,W,9999,143, , ,W,9999,-9999, , , ,9999,-9999, , , ,9999,-9999, , , ,9999,-9999, , , ,9999
GHCND:USW00023064,GARDEN CITY REGIONAL AIRPORT KS US,878.4,37.92722,-100.72472,20160306,0, , ,W,9999,0, , ,W,9999,-9999, , , ,9999,244, , ,W,9999,67, , ,W,9999,50, , ,W,9999,190, , ,W,9999,190, , ,W,9999,103, , ,W,9999,130, , ,W,9999,-9999, , , ,9999,-9999, , , ,9999,-9999, , , ,9999,-9999, , , ,9999
GHCND:USW00023064,GARDEN CITY REGIONAL AIRPORT KS US,878.4,37.92722,-100.72472,20160307,0, , ,W,9999,0, , ,W,9999,-9999, , , ,9999,256, , ,W,9999,28, , ,W,9999,65, , ,W,9999,220, , ,W,9999,210, , ,W,9999,157, , ,W,9999,188, , ,W,9999,-9999, , , ,9999,-9999, , , ,9999,-9999, , , ,9999,-9999, , , ,9999
GHCND:USW00023064,GARDEN CITY REGIONAL AIRPORT KS US,878.4,37.92722,-100.72472,20160308,0, , ,W,9999,0, , ,W,9999,-9999, , , ,9999,156, , ,W,9999,-10, , ,W,9999,46, , ,W,9999,10, , ,W,9999,360, , ,W,9999,89, , ,W,9999,112, , ,W,9999,-9999, , , ,9999,-9999, , , ,9999,-9999, , , ,9999,-9999, , , ,9999
GHCND:USW00023064,GARDEN CITY REGIONAL AIRPORT KS US,878.4,37.92722,-100.72472,20160309,0, , ,W,9999,0, , ,W,9999,-9999, , , ,9999,189, , ,W,9999,-27, , ,W,9999,30, , ,W,9999,10, , ,W,9999,140, , ,W,9999,63, , ,W,9999,76, , ,W,9999,-9999, , , ,9999,-9999, , , ,9999,-9999, , , ,9999,-9999, , , ,9999
GHCND:USW00023064,GARDEN CITY REGIONAL AIRPORT KS US,878.4,37.92722,-100.72472,20160310,0, , ,W,9999,0, , ,W,9999,-9999, , , ,9999,200, , ,W,9999,11, , ,W,9999,36, , ,W,9999,10, , ,W,9999,350, , ,W,9999,76, , ,W,9999,94, , ,W,9999,-9999, , , ,9999,-9999, , , ,9999,-9999, , , ,9999,-9999, , , ,9999
GHCND:USW00023064,GARDEN CITY REGIONAL AIRPORT KS US,878.4,37.92722,-100.72472,20160311,0, , ,W,9999,0, , ,W,9999,0, , ,W,9999,200, , ,W,9999,6, , ,W,9999,51, , ,W,9999,140, , ,W,9999,150, , ,W,9999,103, , ,W,9999,130, , ,W,9999,-9999, , , ,9999,-9999, , , ,9999,-9999, , , ,9999,-9999, , , ,9999
GHCND:USW00023064,GARDEN CITY REGIONAL AIRPORT KS US,878.4,37.92722,-100.72472,20160312,0, , ,W,9999,0, , ,W,9999,-9999, , , ,9999,183, , ,W,9999,11, , ,W,9999,59, , ,W,9999,150, , ,W,9999,150, , ,W,9999,112, , ,W,9999,157, , ,W,9999,1, , ,W,9999,-9999, , , ,9999,-9999, , , ,9999,1, , ,W,9999
GHCND:USW00023064,GARDEN CITY REGIONAL AIRPORT KS US,878.4,37.92722,-100.72472,20160313,0, , ,W,9999,0, , ,W,9999,-9999, , , ,9999,233, , ,W,9999,50, , ,W,9999,41, , ,W,9999,340, , ,W,9999,320, , ,W,9999,103, , ,W,9999,125, , ,W,9999,1, , ,W,9999,-9999, , , ,9999,1, , ,W,9999,1, , ,W,9999
GHCND:USW00023064,GARDEN CITY REGIONAL AIRPORT KS US,878.4,37.92722,-100.72472,20160314,0, , ,W,9999,-9999, , , ,9999,-9999, , , ,9999,261, , ,W,9999,6, , ,W,9999,50, , ,W,9999,10, , ,W,9999,320, , ,W,9999,125, , ,W,9999,161, , ,W,9999,-9999, , , ,9999,-9999, , , ,9999,-9999, , , ,9999,-9999, , , ,9999
GHCND:USW00023064,GARDEN CITY REGIONAL AIRPORT KS US,878.4,37.92722,-100.72472,20160315,0, , ,W,9999,0, , ,W,9999,-9999, , , ,9999,156, , ,W,9999,6, , ,W,9999,88, , ,W,9999,310, , ,W,9999,340, , ,W,9999,157, , ,W,9999,192, , ,W,9999,-9999, , , ,9999,-9999, , , ,9999,-9999, , , ,9999,-9999, , , ,9999
GHCND:USW00023064,GARDEN CITY REGIONAL AIRPORT KS US,878.4,37.92722,-100.72472,20160316,0, , ,W,9999,-9999, , , ,9999,-9999, , , ,9999,150, , ,W,9999,-21, , ,W,9999,46, , ,W,9999,320, , ,W,9999,320, , ,W,9999,112, , ,W,9999,161, , ,W,9999,-9999, , , ,9999,-9999, , , ,9999,-9999, , , ,9999,1, , ,W,9999
GHCND:USW00023064,GARDEN CITY REGIONAL AIRPORT KS US,878.4,37.92722,-100.72472,20160317,0, , ,W,9999,-9999, , , ,9999,-9999, , , ,9999,183, , ,W,9999,-66, , ,W,9999,62, , ,W,9999,50, , ,W,9999,50, , ,W,9999,157, , ,W,9999,183, , ,W,9999,-9999, , , ,9999,-9999, , , ,9999,-9999, , , ,9999,-9999, , , ,9999
GHCND:USW00023064,GARDEN CITY REGIONAL AIRPORT KS US,878.4,37.92722,-100.72472,20160318,0,T, ,W,9999,0, , ,W,9999,-9999, , , ,9999,28, , ,W,9999,-55, , ,W,9999,76, , ,W,9999,30, , ,W,9999,40, , ,W,9999,130, , ,W,9999,152, , ,W,9999,1, , ,W,9999,-9999, , , ,9999,-9999, , , ,9999,-9999, , , ,9999
GHCND:USW00023064,GARDEN CITY REGIONAL AIRPORT KS US,878.4,37.92722,-100.72472,20160319,0, , ,W,9999,0, , ,W,9999,0, , ,W,9999,78, , ,W,9999,-77, , ,W,9999,65, , ,W,9999,330, , ,W,9999,360, , ,W,9999,125, , ,W,9999,157, , ,W,9999,-9999, , , ,9999,-9999, , , ,9999,-9999, , , ,9999,-9999, , , ,9999
GHCND:USW00023064,GARDEN CITY REGIONAL AIRPORT KS US,878.4,37.92722,-100.72472,20160320,0, , ,W,9999,0, , ,W,9999,0, , ,W,9999,122, , ,W,9999,-121, , ,W,9999,39, , ,W,9999,230, , ,W,9999,230, , ,W,9999,76, , ,W,9999,107, , ,W,9999,-9999, , , ,9999,-9999, , , ,9999,-9999, , , ,9999,-9999, , , ,9999
GHCND:USW00023064,GARDEN CITY REGIONAL AIRPORT KS US,878.4,37.92722,-100.72472,20160321,0, , ,W,9999,0, , ,W,9999,0, , ,W,9999,267, , ,W,9999,-27, , ,W,9999,55, , ,W,9999,190, , ,W,9999,230, , ,W,9999,81, , ,W,9999,139, , ,W,9999,-9999, , , ,9999,-9999, , , ,9999,-9999, , , ,9999,-9999, , , ,9999
GHCND:USW00023064,GARDEN CITY REGIONAL AIRPORT KS US,878.4,37.92722,-100.72472,20160322,0, , ,W,9999,0, , ,W,9999,0, , ,W,9999,311, , ,W,9999,50, , ,W,9999,54, , ,W,9999,220, , ,W,9999,220, , ,W,9999,143, , ,W,9999,179, , ,W,9999,-9999, , , ,9999,-9999, , , ,9999,-9999, , , ,9999,-9999, , , ,9999
